{
  "zh-CN": {
    "hint_license": "请阅读并同意《用户许可》。",
    "hint_policy": "请阅读并同意《隐私政策》。",
    "protocol_title": "请确认以下信息",
    "license_text_all": "我已阅读并同意《用户授权许可协议》。",
    "license_text_color": "《用户授权许可协议》",
    "policy_text_all": "我已阅读并同意《隐私政策》。",
    "policy_text_color": "《隐私政策》",
    "please_input_email": "电子邮件地址",
    "please_input_password": "密码",
    "register_account": "注册",
    "find_password": "忘记密码",
    "sign_in": "登录",
    "other": "其他",
    "had_send_code": "验证码已成功发送到您的电子邮箱。",
    "please_input_verify_code": "请输入验证码",
    "send_verify_code": "发送",
    "please_set_password": "请输入密码（8-30 个字符，至少包括以下两项：字母、数字或下划线）。",
    "please_set_password_again": "请再次输入密码",
    "register_success": "注册成功",
    "please_input_new_password": "请输入新密码",
    "please_input_new_password_again": "请再次输入新密码",
    "reset": "重置",
    "please_complete_verify": "请完成验证后再进入。",
    "current_account": "当前账号：",
    "confirm_login": "确定",
    "link_apj": "绑定 A PLUS 账号",
    "sign_out": "退出",
    "link_account": "绑定账号",
    "delete_account": "删除账号",
    "delete_account_content": "账户删除将不可逆转，您确定要删除账户吗？",
    "second_apply_content": "您正在申请删除您的游戏账户，如果你确认需要删除，请点击 \"删除账户\" 进行下一步。提交后，您仍有 30 天的时间重新登录激活它。30 天内未登录，账户将被彻底删除，且无法撤销。",
    "cancel": "取消",
    "confirm": "确定",
    "change_email": "更换邮箱",
    "change_password": "更换密码",
    "please_input_new_email": "请输入新的电子邮件地址。",
    "confirm_change": "确定",
    "account_suspend": "账号已被禁用",
    "account_had_suspended_content": "此帐户已被禁用，如有任何问题，请联系客户支持部门。",
    "operate_success": "已完成",
    "reset_password_success": "您的密码已成功重置，请重新登录。",
    "guest_account": "游客账户",
    "other_account": "其他",
    "unregister_url_not_set": "未配置 URL",
    "note": "备注",
    "account_need_sign_in_again": "为确保您的账户安全，请再次登录。",
    "facebook_share_fail": "分享失败，请下载并打开 Facebook 应用程序。",
    "google_ad_info": "感谢您使用我们APP，是否允许我们收集和使用您的数据用于谷歌个性化广告？",
    "google_ad_title": "用户数据使用权限",
    "google_ad_yes": "允许",
    "google_ad_no": "不允许"
  },
  "zh-TW": {
    "hint_license": "請閱讀並同意《使用者許可》。",
    "hint_policy": "請閱讀並同意《隱私權政策》。",
    "protocol_title": "請確認下列資訊",
    "license_text_all": "我已閱讀並同意《使用者授權協議》。",
    "license_text_color": "《使用者授權協議》",
    "policy_text_all": "我已閱讀並同意《隱私權政策》。",
    "policy_text_color": "《隱私權政策》",
    "please_input_email": "電子郵件地址",
    "please_input_password": "密碼",
    "register_account": "註冊",
    "find_password": "忘記密碼",
    "sign_in": "登入",
    "other": "其他",
    "had_send_code": "驗證碼已成功傳送到您的電子郵件信箱。",
    "please_input_verify_code": "請輸入驗證碼",
    "send_verify_code": "發送",
    "please_set_password": "請輸入密碼（8-30 個字符，至少包含以下兩項：字母、數字或底線）。",
    "please_set_password_again": "請再輸入密碼",
    "register_success": "註冊成功",
    "please_input_new_password": "請輸入新密碼",
    "please_input_new_password_again": "請再輸入新密碼",
    "reset": "重置",
    "please_complete_verify": "請完成驗證後再進入。",
    "current_account": "目前帳號：",
    "confirm_login": "確定",
    "link_apj": "綁定 A PLUS 帳號",
    "sign_out": "退出",
    "link_account": "綁定帳號",
    "delete_account": "刪除帳號",
    "delete_account_content": "帳戶刪除將不可逆，您確定要刪除帳戶嗎？",
    "second_apply_content": "您正在申請刪除您的遊戲帳號，如果你確認需要刪除，請點擊 \"刪除帳號\" 進行下一步。提交後，您仍有30 天的時間重新登入啟動它。30 天內未登錄，帳戶將被徹底刪除，且無法撤銷。",
    "cancel": "取消",
    "confirm": "確定",
    "change_email": "更換信箱",
    "change_password": "更換密碼",
    "please_input_new_email": "請輸入新的電子郵件地址。",
    "confirm_change": "確定",
    "account_suspend": "帳號已停用",
    "account_had_suspended_content": "此帳戶已停用，如有任何問題，請聯絡客戶支援部門。",
    "operate_success": "已完成",
    "reset_password_success": "您的密碼已成功重設，請重新登入。",
    "guest_account": "遊客帳號",
    "other_account": "其他",
    "unregister_url_not_set": "未設定 URL",
    "note": "備註",
    "account_need_sign_in_again": "為確保您的帳戶安全，請再次登入。",
    "facebook_share_fail": "分享失敗，請下載並開啟 Facebook 應用程式。",
    "google_ad_info": "感謝您使用我們的APP，是否允許我們收集和使用您的資料以用於Google個性化廣告？",
    "google_ad_title": "用戶數據使用權限",
    "google_ad_yes": "允許",
    "google_ad_no": "不允許"
  },
  "en": {
    "hint_license": "Please read and agree the User License.",
    "hint_policy": "Please read and agree the Privacy Policy.",
    "protocol_title": "Please confirm the following information",
    "license_text_all": "I have read and agree to the End User License Agreement.",
    "license_text_color": "End User License Agreement.",
    "policy_text_all": "I have read and agree to the Privacy Policy.",
    "policy_text_color": "Privacy Policy.",
    "please_input_email": "Email Address",
    "please_input_password": "Password",
    "register_account": "Register",
    "find_password": "Forgot password?",
    "sign_in": "Sign in",
    "other": "Other",
    "had_send_code": "The verification code has been sent to your email successfully.",
    "please_input_verify_code": "Enter verification code",
    "send_verify_code": "Send",
    "please_set_password": "Enter your password (8-30 characters including at least 2 of followings: alphabets, numbers or underline).",
    "please_set_password_again": "Please enter your password again.",
    "register_success": "Registration Successful",
    "please_input_new_password": "Please enter a new password",
    "please_input_new_password_again": "Enter the new password again",
    "reset": "Reset",
    "please_complete_verify": "Please complete the verification before entering.",
    "current_account": "The current account:",
    "confirm_login": "Confirm",
    "link_apj": "Link APlus Account",
    "sign_out": "Sign out",
    "link_account": "Link accounts",
    "delete_account": "Delete Account",
    "delete_account_content": "The account deletion will be irreversible. Are you sure to delete your account?",
    "second_apply_content": "You are applying for the deletion of your game account. If you are ready to delete it, click \"Delete Account\" to start the process. Once submitted, you'll still have 30 days to reactivate it by logging in again. After 30 days without login, the account will be deleted completely, and the deletion CANNOT be undone.",
    "cancel": "Cancel",
    "confirm": "Confirm",
    "change_email": "Change email",
    "change_password": "Change password",
    "please_input_new_email": "Please enter your new email address.",
    "confirm_change": "Confirm",
    "account_suspend": "Account Suspended",
    "account_had_suspended_content": "This account has been suspended, please contact Customer Support if you have any question.",
    "operate_success": "Success.",
    "reset_password_success": "Your password has been successfully reset. Please log in again.",
    "guest_account": "Guest",
    "other_account": "Others",
    "unregister_url_not_set": "URL not configured",
    "note": "Note",
    "account_need_sign_in_again": "Please sign in again to ensure your account safety.",
    "facebook_share_fail": "Share fail, Please download and open Facebook App.",
    "google_ad_info": "Thank you for using our APP. Allow the app to collect and use your activity for Google Ad Personalization?",
    "google_ad_title": "User data usage permission",
    "google_ad_yes": "Allow",
    "google_ad_no": "Don't Allow"
  },
  "de": {
    "hint_license": "Bitte lesen und stimmen Sie der Benutzerlizenz zu.",
    "hint_policy": "Bitte lesen und stimmen Sie der Datenschutzerklärung zu.",
    "protocol_title": "Bitte bestätigen Sie die folgenden Informationen",
    "license_text_all": "Ich habe die Endbenutzer-Lizenzvereinbarung gelesen und stimme ihr zu.",
    "license_text_color": "Endbenutzer-Lizenzvereinbarung",
    "policy_text_all": "Ich habe die Datenschutzerklärung gelesen und stimme ihr zu.",
    "policy_text_color": "Datenschutzerklärung",
    "please_input_email": "E-Mail-Adresse",
    "please_input_password": "Passwort",
    "register_account": "Registrieren",
    "find_password": "Passwort vergessen?",
    "sign_in": "Anmelden",
    "other": "Andere",
    "had_send_code": "Der Verifizierungscode wurde erfolgreich an deine E-Mail gesendet.",
    "please_input_verify_code": "Gib deinen Code ein",
    "send_verify_code": "Senden",
    "please_set_password": "Gib das Passwort ein.( Das Passwort muss mindestens 8 Zeichen lang sein und mindestens zwei der folgenden Optionen enthalten: Buchstaben, Zahlen oder Unterstriche.",
    "please_set_password_again": "Gib das Passwort noch einmal ein",
    "register_success": "Registrierung erfolgreich",
    "please_input_new_password": "Neues Passwort",
    "please_input_new_password_again": "Gib das neue Passwort noch einmal ein",
    "reset": "Zurücksetzen",
    "please_complete_verify": "Bitte schließe die Verifizierung vor der Eingabe ab.",
    "current_account": "Aktuelles Konto:",
    "confirm_login": "Bestätigen",
    "link_apj": "APJ-Konto Verknüpfen",
    "sign_out": "Abmelden",
    "link_account": "Konto Verknüpfen",
    "delete_account": "Konto löschen",
    "delete_account_content": "Die Löschung des Kontos ist unwiderruflich. Sind Sie sicher, dass Sie Ihr Konto löschen werden?",
    "second_apply_content": "Sie beantragen die Löschung Ihres Spielkonto. Wenn Sie bereit sind, es zu löschen, klicken Sie auf „Konto löschen“, um den Vorgang zu starten. Sobald Sie den Antrag gestellt haben, haben Sie noch 30 Tage Zeit, das Konto zu reaktivieren, indem Sie sich erneut anmelden. Nach 30 Tagen ohne Anmeldung wird das Konto vollständig gelöscht, und die Löschung kann NICHT rückgängig gemacht werden.",
    "cancel": "Abbrechen",
    "confirm": "Bestätigen",
    "change_email": "E-Mail-Adresse ändern",
    "change_password": "Passwort ändern",
    "please_input_new_email": "Bitte gib deine neue E-Mail-Adresse ein.",
    "confirm_change": "Bestätigen",
    "account_suspend": "Konto gesperrt",
    "account_had_suspended_content": "Dieses Konto wurde gesperrt. Bitte kontaktiere den Kundensupport, wenn du weitere Fragen hast.",
    "operate_success": "Erfolgreich.",
    "reset_password_success": "Dein Passwort wurde erfolgreich zurückgesetzt. Bitte melde dich erneut an.",
    "guest_account": "Gast",
    "other_account": "Andere",
    "unregister_url_not_set": "URL nicht konfiguriert",
    "note": "Hinweis",
    "account_need_sign_in_again": "Bitte melde dich erneut an, um die Sicherheit deines Kontos zu gewährleisten.",
    "facebook_share_fail": "Teilen fehlgeschlagen. Bitte laden Sie die Facebook-App herunter und öffnen Sie sie.",
    "google_ad_info": "Vielen Dank für die Nutzung unserer App. Erlaubst du uns, deine Daten für das Zulassen von personalisierten Google Ads zu sammeln und zu verwenden?",
    "google_ad_title": "Zugriff auf benutzerkennung gewährt",
    "google_ad_yes": "Zulassen",
    "google_ad_no": "Erlauben nicht"
  },
  "fr": {
    "hint_license": "Veuillez lire et accepter la licence utilisateur.",
    "hint_policy": "Veuillez lire et accepter la politique de confidentialité.",
    "protocol_title": "Veuillez confirmer les informations suivantes",
    "license_text_all": "J'ai lu et j'accepte le contrat de licence utilisateur final.",
    "license_text_color": "contrat de licence utilisateur final.",
    "policy_text_all": "J'ai lu et j'accepte la politique de confidentialité.",
    "policy_text_color": "politique de confidentialité.",
    "please_input_email": "Adresse e-mail",
    "please_input_password": "Mot de passe",
    "register_account": "S'inscrire",
    "find_password": "Mot de passe oublié ?",
    "sign_in": "Se connecter",
    "other": "D'autres",
    "had_send_code": "Le code de vérification a été envoyé à votre adresse e-mail avec succès.",
    "please_input_verify_code": "Entrer le code de vérification",
    "send_verify_code": "Envoyer",
    "please_set_password": "Entrer votre mot de passe (8-30 caractères contenant au moins deux des éléments suivants : lettres, chiffres ou soulignement)",
    "please_set_password_again": "Veuillez entrer à nouveau votre mot de passe.",
    "register_success": "Inscription réussie",
    "please_input_new_password": "Veuillez entrer un nouveau mot de passe.",
    "please_input_new_password_again": "Veuillez entrer le nouveau mot de passe à nouveau.",
    "reset": "Réinitialisation",
    "please_complete_verify": "Veuillez compléter la vérification avant de vous connecter.",
    "current_account": "Le compte actuel:",
    "confirm_login": "Confirmer la connexion",
    "link_apj": "Lier au Compte APlus",
    "sign_out": "Se déconnecter",
    "link_account": "Lier à des comptes",
    "delete_account": "Supprimer le Compte",
    "delete_account_content": "La suppression du compte sera irréversible. Êtes-vous sûr(e) de vouloir supprimer votre compte ?",
    "second_apply_content": "Vous demandez la suppression de votre compte de jeu. Si vous êtes prêt(e) à le supprimer, cliquez sur \"Supprimer le Compte\" pour lancer la procédure. Une fois la demande soumise, vous aurez encore 30 jours pour le réactiver en vous connectant à nouveau. Après 30 jours sans connexion, le compte sera complètement supprimé, et la suppression NE PEUT PAS être annulée.",
    "cancel": "Annuler",
    "confirm": "Confirmer",
    "change_email": "Modifier l'e-mail ",
    "change_password": "Modifier le mot de passe",
    "please_input_new_email": "Veuillez entrer votre nouvelle adresse e-mail.",
    "confirm_change": "Confirmer",
    "account_suspend": "Compte Suspendu",
    "account_had_suspended_content": "Le compte a été suspendu, veuillez contacter le Service Clientèle si vous avez des questions.",
    "operate_success": "Avec succès",
    "reset_password_success": "Votre mot de passe a été réinitialisé avec succès. Veuillez vous reconnecter.",
    "guest_account": "Guest",
    "other_account": "Autres",
    "unregister_url_not_set": "URL non configurée",
    "note": "Note",
    "account_need_sign_in_again": "Veuillez vous reconnecter pour garantir la sécurité de votre compte.",
    "facebook_share_fail": "Échec du partage, veuillez télécharger et ouvrir l'application Facebook.",
    "google_ad_info": "Merci d'avoir utilisé notre application. Nous autorisez-vous à collecter et à utiliser vos données pour la publicité personnalisée de Google ? ",
    "google_ad_title": "Droits d’utilisation des données utilisateur",
    "google_ad_yes": "Oui",
    "google_ad_no": "Non"
  },
  "pt": {
    "hint_license": "Por favor, leia e concorde com a Licença de Usuário.",
    "hint_policy": "Por favor, leia e concorde com a Política de Privacidade.",
    "protocol_title": "Confirme as seguintes informações",
    "license_text_all": "Li e concordo com o Contrato de licença do usuário final.",
    "license_text_color": "Contrato de licença do usuário final.",
    "policy_text_all": "Li e concordo com a Política de Privacidade.",
    "policy_text_color": "Política de Privacidade.",
    "please_input_email": "Endereço de email",
    "please_input_password": "Senha",
    "register_account": "Registrar",
    "find_password": "Esqueceu a senha?",
    "sign_in": "Conectar",
    "other": "Outro",
    "had_send_code": "O código de verificação foi enviado para o seu e-mail com sucesso.",
    "please_input_verify_code": "Digite o código de verificação",
    "send_verify_code": "Envie",
    "please_set_password": "Digite sua senha (de 8 a 30 caracteres, incluindo pelo menos 2 dos seguintes: letras, números ou sublinhado).",
    "please_set_password_again": "Por favor digite sua senha novamente.",
    "register_success": "Registro bem-sucedido",
    "please_input_new_password": "Digite uma nova senha",
    "please_input_new_password_again": "Digite a nova senha novamente",
    "reset": "Redefinir",
    "please_complete_verify": "Por favor, complete a verificação antes de entrar.",
    "current_account": "A conta corrente:",
    "confirm_login": "Confirmar conectar",
    "link_apj": "Vincular uma conta de APlus",
    "sign_out": "Sair",
    "link_account": "Vincular contas",
    "delete_account": "Excluir conta",
    "delete_account_content": "A exclusão da conta será irreversível. Tem certeza que deseja deletar sua conta?",
    "second_apply_content": "Você está solicitando a exclusão de sua conta. Se você estiver pronto para excluí-lo, clique em \"Excluir conta\" para iniciar o processo. Depois de enviado, você ainda terá 30 dias para reativá-lo fazendo login novamente. Após 30 dias sem login, a conta será deletada por completo, e a exclusão NÃO PODE ser desfeita.",
    "cancel": "Cancelar",
    "confirm": "Confirmar",
    "change_email": "Mude o e-mail",
    "change_password": "Mudar senha",
    "please_input_new_email": "Digite seu novo endereço de e-mail.",
    "confirm_change": "confirmar",
    "account_suspend": "Sua conta foi banida.",
    "account_had_suspended_content": "Sua conta foi banida. Podia entrar em contato com o atendimento ao cliente.",
    "operate_success": "Operação foi bem-sucedida!",
    "reset_password_success": "A sua senha já foi redefinida com sucesso. Podia fazer login novamente.",
    "guest_account": "Convidado",
    "other_account": "Terceiros",
    "unregister_url_not_set": "URL não foi configurado",
    "note": "Dica",
    "account_need_sign_in_again": "Sua conta precisa fazer login novamente para garantir a segurança da conta",
    "facebook_share_fail": "Falha ao compartilhar, faça o download e abra o aplicativo do Facebook.",
    "google_ad_info": "Obrigado por usar nosso APP. Você nos permite coletar e usar seus dados para publicidade personalizada do Google?",
    "google_ad_title": "Direitos de uso de dados do usuário",
    "google_ad_yes": "Permitir",
    "google_ad_no": "Não permitir"
  },
  "es": {
    "hint_license": "Lea y acepte la Licencia de usuario.",
    "hint_policy": "Por favor, lea y acepte la Política de privacidad.",
    "protocol_title": "Por favor confirme la siguiente información",
    "license_text_all": "He leído y acepto el Acuerdo de licencia de usuario final.",
    "license_text_color": "Acuerdo de licencia de usuario final.",
    "policy_text_all": "He leído y acepto la Política de Privacidad.",
    "policy_text_color": "Política de Privacidad.",
    "please_input_email": "E-mail",
    "please_input_password": "Contraseña",
    "register_account": "Registrar",
    "find_password": "¿Se te olvidó tu contraseña?",
    "sign_in": "Iniciar sesión",
    "other": "Otro",
    "had_send_code": "El código de verificación se ha enviado a su  e-mail con éxito.",
    "please_input_verify_code": "Introduce el código",
    "send_verify_code": "Enviar",
    "please_set_password": "Introduzca su contraseña (de 8 a 30 caracteres, incluidos al menos 2 de los siguientes: letras, números o guion bajo).",
    "please_set_password_again": "Por favor ingrese su contraseña de nuevo.",
    "register_success": "Registro exitoso",
    "please_input_new_password": "Por favor ingrese una nueva contraseña",
    "please_input_new_password_again": "Introduce la nueva contraseña",
    "reset": "Reiniciar",
    "please_complete_verify": "Por favor complete la verificación antes de ingresar.",
    "current_account": "La cuenta actual:",
    "confirm_login": "Iniciar sesión",
    "link_apj": "Vincular la cuenta de A PLUS",
    "sign_out": "Salir",
    "link_account": "Vincular cuentas",
    "delete_account": "Borrar cuenta",
    "delete_account_content": "La eliminación de la cuenta será irreversible. ¿Estás de acuerdo en eliminar tu cuenta?",
    "second_apply_content": "Estás solicitando la eliminación de tu cuenta del juego. Si está listo/a para eliminarlo, haga clic en \"Borrar cuenta\" para iniciar el proceso. Una vez enviado, aún tendrá 30 días para reactivarlo iniciando sesión nuevamente. Después de 30 días sin iniciar sesión, la cuenta se eliminará por completo y la eliminación NO SE PUEDE deshacer.",
    "cancel": "Cancelar",
    "confirm": "Confirmar",
    "change_email": "Cambiar e-mail",
    "change_password": "Cambiar la contraseña",
    "please_input_new_email": "Por favor, introduzca su nueva dirección de e-mail.",
    "confirm_change": "Confirmar",
    "account_suspend": "Cuenta Suspendida",
    "account_had_suspended_content": "Esta cuenta ha sido suspendida, comuníquese con Atención al cliente si tiene alguna pregunta.",
    "operate_success": "Éxito.",
    "reset_password_success": "Su contraseña ha sido restablecida con éxito. Inicie sesión de nuevo, por favor.",
    "guest_account": "Invitado",
    "other_account": "Otros",
    "unregister_url_not_set": "URL no configurado",
    "note": "Nota",
    "account_need_sign_in_again": "Vuelva a iniciar sesión para garantizar la seguridad de la cuenta.",
    "facebook_share_fail": "No se pudo compartir, descargue y abra la aplicación de Facebook.",
    "google_ad_info": "Gracias por su apoyo a nuestra app. ¿Nos permites que colectemos y empleemos sus datos personales para la publicidad personalizada de Google?",
    "google_ad_title": "Derechos de uso de datos de usuario",
    "google_ad_yes": "Sí",
    "google_ad_no": "No"
  },
  "ar": {
    "hint_license": "يرجى قراءة والموافقة على ترخيص المستخدم.",
    "hint_policy": "يرجى قراءة سياسة الخصوصية والموافقة عليها.",
    "protocol_title": "يرجى تأكيد المعلومات التالية",
    "license_text_all": "لقد قرأت ووافقت على اتفاقية ترخيص المستخدم النهائي",
    "license_text_color": " اتفاقية ترخيص المستخدم النهائي",
    "policy_text_all": "لقد قرأت ووافقت على سياسة الخصوصية",
    "policy_text_color": " سياسة الخصوصية",
    "please_input_email": "عنوان البريد الالكترونى",
    "please_input_password": "كلمة السر",
    "register_account": "انشئ حساب",
    "find_password": "هل نسيت كلمة السر؟",
    "sign_in": "تسجيل الدخول",
    "other": "آخر",
    "had_send_code": "تم إرسال رمز التحقق إلى بريدك الإلكتروني بنجاح.",
    "please_input_verify_code": "أدخل رمز التحقق",
    "send_verify_code": "إرسال",
    "please_set_password": "أدخل كلمة السر (على الأقل 8 أحرف وتحتوي على اثنين على الأقل مما يلي: الحروف والأرقام والتسطير).",
    "please_set_password_again": "يرجى إدخال كلمة السر مرة أخرى.",
    "register_success": "تم التسجيل بنجاح",
    "please_input_new_password": "يرجى إدخال كلمة السر الجديدة",
    "please_input_new_password_again": "أدخل كلمة السر الجديدة مرة أخرى",
    "reset": "إعادة تعيين",
    "please_complete_verify": "يرجى إكمال التحقق قبل الدخول.",
    "current_account": "الحساب الجاري",
    "confirm_login": "تأكيد تسجيل الدخول",
    "link_apj": "ربط حساب APlus",
    "sign_out": "تسجيل الخروج",
    "link_account": "ربط الحسابات",
    "delete_account": "حذف الحساب",
    "delete_account_content": "لن يتم التراجع عن حذف الحساب، فهل أنت متأكد من حذف حسابك؟",
    "second_apply_content": "أنت تقدم طلبًا لحذف حساب اللعبة الخاص بك. إذا كنت مستعدًا لحذفه، فانقر فوق \"حذف الحساب\" لبدء العملية. بمجرد الإرسال، لا يزال لديك 30 يومًا لإعادة تنشيطه عن طريق تسجيل الدخول مرة أخرى. بعد 30 يومًا بدون تسجيل الدخول، سيتم حذف الحساب تمامًا، و لا يمكن التراجع عن الحذف.",
    "cancel": "إلغاء",
    "confirm": "تأكيد",
    "change_email": "تغيير البريد الإلكتروني",
    "change_password": "غير كلمة السر",
    "please_input_new_email": "يرجى إدخال عنوان بريدك الإلكترونيالجديد.",
    "confirm_change": "تأكيد",
    "account_suspend": "الحساب معلق",
    "account_had_suspended_content": "تم تعليق هذا الحساب، يرجى الاتصال بدعم العملاء إذا كان لديك أي سؤال.",
    "operate_success": "النجاح",
    "reset_password_success": "تم إعادة تعيين كلمة مرورك بنجاح. يرجى تسجيل الدخول مرة أخرى.",
    "guest_account": "الضيف",
    "other_account": "آخر",
    "unregister_url_not_set": "عنوان URL غير مهيأ",
    "note": "انتظار",
    "account_need_sign_in_again": "يرجي إعادة تسجيل دخول حسابك لأمن حسابك.",
    "facebook_share_fail": "فشلت المشاركة ، يرجى تنزيل تطبيق Facebook وفتحه.",
    "google_ad_info": "شكرًا لك على استخدام تطبيقنا. هل تسمح لنا بجمع بياناتك واستخدامها لإعلانات Google المخصصة؟",
    "google_ad_title": "أذونات بيانات المستخدم",
    "google_ad_yes": "نعم",
    "google_ad_no": "لا"
  },
  "ja": {
    "hint_license": "本サービス利用規約をご確認のうえ、同意する必要があります",
    "hint_policy": "本プライバシーポリシーをご確認のうえ、同意する必要があります",
    "protocol_title": "内容をご確認ください",
    "license_text_all": "利用許諾契約を確認したうえで同意する",
    "license_text_color": "利用許諾契約",
    "policy_text_all": "プライバシーポリシーを確認したうえで同意する",
    "policy_text_color": "プライバシーポリシー",
    "please_input_email": "メールアドレス",
    "please_input_password": "パスワード",
    "register_account": "新規登録",
    "find_password": "パスワードをお忘れですか？",
    "sign_in": "ログイン",
    "other": "その他",
    "had_send_code": "認証コードをお客様の登録メールアドレスに送信しました。",
    "please_input_verify_code": "認証コードを入力",
    "send_verify_code": "送信",
    "please_set_password": "パスワードを入力（「半角英字」「半角数字」「_」のうち2種類以上を組み合わせて8～30文字で入力してください）",
    "please_set_password_again": "パスワードを再度ご入力ください",
    "register_success": "新規登録に成功しました",
    "please_input_new_password": "新しいパスワードを設定してください",
    "please_input_new_password_again": "新しいパスワードをもう一度ご入力ください",
    "reset": "リセット",
    "please_complete_verify": "次の画面に進む前に認証を完了してください。",
    "current_account": "現在のアカウント：",
    "confirm_login": "確認",
    "link_apj": "APlusアカウントと連携",
    "sign_out": "ログアウト",
    "link_account": "アカウント連携",
    "delete_account": "アカウント削除",
    "delete_account_content": "アカウント削除を行うと、元に戻すことはできません。本当にアカウントを削除しますか？",
    "second_apply_content": "こちらはアカウント削除の申請画面です。アカウントの削除にを希望の場合は、「アカウント削除」ボタンをタップしてください。削除申請後、再度アカウントを使用する場合は、申請日から30日以内に該当アカウントに再度ログインしてください。削除申請日から30日以内にログインしていない場合、該当アカウントの情報は完全に削除され、復元することはできません。",
    "cancel": "キャンセル",
    "confirm": "確認",
    "change_email": "メールアドレスの変更",
    "change_password": "パスワードの変更",
    "please_input_new_email": "新しいメールアドレスをご入力ください。",
    "confirm_change": "確認",
    "account_suspend": "アカウントが利用停止になりました",
    "account_had_suspended_content": "当アカウントが一時利用停止されています。ご不明な点などございましたら、カスタマーサポートまでお問い合わせください。",
    "operate_success": "成功.",
    "reset_password_success": "パスワードの再設定が完了しました。もう一度最初からログインしてください。",
    "guest_account": "ゲスト",
    "other_account": "その他",
    "unregister_url_not_set": "URL未設定",
    "note": "注意",
    "account_need_sign_in_again": "もう一度ログインし、アカウントのセキュリティ状況をご確認ください。",
    "facebook_share_fail": "シェアに失敗しました。Facebookのアプリをダウンロードしアプリを開いてください。",
    "google_ad_info": "当社のアプリをご利用いただきありがとうございます。Google パーソナライズド広告のためにお客様のユーザーデータを収集し、使用することを許可しますか？",
    "google_ad_title": "ユーザーデータ利用権",
    "google_ad_yes": "はい",
    "google_ad_no": "いいえ"
  },
  "ko": {
    "hint_license": "이용약관을 읽고 동의해 주세요",
    "hint_policy": "개인정보 보호정책을 읽고 동의해 주세요",
    "protocol_title": "정보를 확인하세요",
    "license_text_all": "최종 이용약관을 읽고 동의했습니다",
    "license_text_color": "최종 이용약관",
    "policy_text_all": "개인정보 보호정책을 읽고 동의했습니다",
    "policy_text_color": "개인정보 보호정책",
    "please_input_email": "이메일 주소",
    "please_input_password": "비밀번호",
    "register_account": "가입",
    "find_password": "비밀번호를 잊으셨나요?",
    "sign_in": "로그인",
    "other": "기타",
    "had_send_code": "인증번호를 이메일로 발송했습니다",
    "please_input_verify_code": "인증번호 입력",
    "send_verify_code": "발송",
    "please_set_password": "비밀번호 입력(8~30자, 최소 2가지 포함: 부호, 숫자, 밑줄)",
    "please_set_password_again": "비밀번호를 다시 입력하세요",
    "register_success": "가입 성공",
    "please_input_new_password": "새 비밀번호를 입력하세요",
    "please_input_new_password_again": "새 비밀번호를 다시 입력하세요",
    "reset": "초기화",
    "please_complete_verify": "들어가기 전에 인증을 완료하세요",
    "current_account": "현재 계정:",
    "confirm_login": "확인",
    "link_apj": "APlus 계정 연동",
    "sign_out": "로그아웃",
    "link_account": "계정 연동",
    "delete_account": "계정 삭제",
    "delete_account_content": "계정 삭제는 취소가 불가능합니다. 정말 계정을 삭제하겠습니까?",
    "second_apply_content": "계정 삭제 신청 중입니다. 계정을 삭제하려면 '계정 삭제'를 터치하세요. 신청 제출 후에도 30일 내에 다시 로그인하면 계정을 활성화할 수 있으며, 30일 내에 로그인하지 않으면 계정이 완전히 삭제됩니다.",
    "cancel": "취소",
    "confirm": "확인",
    "change_email": "이메일 수정",
    "change_password": "비밀번호 수정",
    "please_input_new_email": "새 이메일 주소를 입력하세요",
    "confirm_change": "확인",
    "account_suspend": "사용이 정지된 계정입니다",
    "account_had_suspended_content": "일시 정지된 계정입니다. 문의사항은 고객센터로 연락해 주세요.",
    "operate_success": "성공",
    "reset_password_success": "비밀번호 초기화 성공. 다시 로그인하세요",
    "guest_account": "게스트",
    "other_account": "기타",
    "unregister_url_not_set": "URL 미설정",
    "note": "비고",
    "account_need_sign_in_again": "계정 보호를 위해 다시 로그인하세요",
    "facebook_share_fail": "공유 실패, Facabook을 다운로드하고 열어 주세요.",
    "google_ad_info": "앱을 사용해 주셔서 감사합니다. Google 맞춤 광고를 위해 귀하의 데이터를 수집하고 사용하는 것을 허용하시겠습니까?",
    "google_ad_title": "사용자 데이터 권한",
    "google_ad_yes": "예",
    "google_ad_no": "아니요"
  }
}

